…
```
## The following objects are masked from 'package:base':
## 
##     intersect, setdiff, setequal, union
```

```r
mydata %>% 
  group_by(date) %>% 
  summarise(Total = sum(steps, na.rm = TRUE))
```

```
## # A tibble: 61 x 2
##    date       Total
##    <chr>      <int>
##  1 2012-10-01     0
##  2 2012-10-02   126
##  3 2012-10-03 11352
##  4 2012-10-04 12116
##  5 2012-10-05 13294
##  6 2012-10-06 15420
##  7 2012-10-07 11015
##  8 2012-10-08     0
##  9 2012-10-09 12811
## 10 2012-10-10  9900
## # ... with 51 more rows
```
…
```
## png 
##   2
```
##Calculate and report the mean and median of the total number of steps taken per day

```r
mydata %>% 
  group_by(date) %>% 
  summarise(Mean = mean(steps, na.rm = TRUE),Median = median(steps, na.rm = TRUE))
```

```
## # A tibble: 61 x 3
##    date          Mean Median
##    <chr>        <dbl>  <dbl>
##  1 2012-10-01 NaN         NA
##  2 2012-10-02   0.438      0
##  3 2012-10-03  39.4        0
##  4 2012-10-04  42.1        0
##  5 2012-10-05  46.2        0
##  6 2012-10-06  53.5        0
##  7 2012-10-07  38.2        0
##  8 2012-10-08 NaN         NA
##  9 2012-10-09  44.5        0
## 10 2012-10-10  34.4        0
## # ... with 51 more rows
```
…
